<?xml version="1.0" encoding="UTF-8" standalone="no"?><!DOCTYPE svg PUBLIC "-//W3C//DTD SVG 1.1//EN" "http://www.w3.org/Graphics/SVG/1.1/DTD/svg11.dtd">

<svg width="100%" height="100%" viewBox="0 0 151 240" version="1.1" xmlns="http://www.w3.org/2000/svg" xmlns:xlink="http://www.w3.org/1999/xlink" xml:space="preserve" xmlns:serif="http://www.serif.com/" style="fill-rule:evenodd;clip-rule:evenodd;stroke-linejoin:round;stroke-miterlimit:1.41421;">
<path d="M9.707,22.012l0,-22.012l11.379,0l0,3.16l-7.469,0l0,9.863l6.314,0l0,3.2l-6.314,0l0,5.793l20.858,0.024c-0.068,-3.199 0.005,-7.848 0.204,-8.889c0.726,-3.787 2.737,-4.575 5.766,-4.558c3.173,0.018 5.059,0.845 5.832,4.88c0.182,0.951 0.204,5.346 0.099,8.581l15.237,0.017l0,-21.731l3.748,0l0,21.735l15.752,0.018l0,-21.753l3.748,0l0,21.757l15.202,0.018c-0.07,-3.201 0.003,-7.899 0.204,-8.946c0.725,-3.787 2.737,-4.575 5.765,-4.558c3.173,0.018 5.06,0.845 5.833,4.88c0.183,0.957 0.204,5.398 0.096,8.637l16.119,0.019l-2.336,-13.543l3.024,0c0,0 1.25,9.114 1.862,13.546l0.679,0l2.032,-13.546l3.872,0c0,0 1.281,8.942 1.943,13.555l0.774,0.001l1.978,-13.556l2.626,0l-2.232,13.559l7.77,0.009l-75.187,130.321l-74.885,-130.492l9.707,0.011Zm126.975,0.145c-0.62,-3.359 -1.208,-6.57 -1.291,-7.107c-0.04,0.271 -0.669,3.602 -1.332,7.104l2.623,0.003Zm-28.555,-0.033c0.067,-2.916 0.041,-7.81 -0.079,-8.633c-0.162,-1.108 -0.319,-2.168 -1.969,-2.186c-1.85,-0.02 -1.905,1.139 -2.077,2.246c-0.128,0.823 -0.157,5.672 -0.086,8.568l4.211,0.005Zm-65.586,-0.075c0.065,-2.922 0.038,-7.758 -0.081,-8.576c-0.162,-1.107 -0.318,-2.168 -1.968,-2.186c-1.85,-0.02 -1.906,1.139 -2.078,2.247c-0.127,0.817 -0.156,5.608 -0.087,8.51l4.214,0.005Z" style="fill:#dc3545;fill-rule:nonzero;"/>
<path d="M75.035,239.455c7.892,0.085 23.873,-11.1 23.813,-23.895c-0.055,-11.779 -10.222,-28.041 -23.811,-46.561c-13.59,18.52 -23.758,34.783 -23.813,46.562c-0.06,12.795 9.814,23.745 23.811,23.894Z" style="fill:#dc3545;"/>
</svg>